# Alias OBJ Model File
# Exported from SketchUp, (c) 2000-2012 Trimble Navigation Limited
# File units = inches

mtllib KingW.mtl

g Mesh1 Group2 Group1 Model

usemtl M_28ABDC6B_c
v 0.755755 3.874 0.425192
vt -0.000522442 0.750202
vn 0.856946 -0.0935998 0.506835
v -6.60258e-005 3.63787 0.000117623
vt 0.499487 0.503149
vn 0.000193289 -1 -7.22166e-005
v 0.755586 3.87416 -0.425214
vt -0.000502735 0.250202
vn 0.856907 -0.0934737 -0.506926
f 1/1/1 2/2/2 3/3/3

vt 3.93606e-005 0.749975
vn 0.856946 -0.0935998 0.506835
v -0.000169998 3.87389 0.850136
vt 0.50004 0.999973
vn -1.57244e-005 -0.0935168 0.995618
vt 0.500038 0.502903
vn 0.000193289 -1 -7.22166e-005
f 1/4/4 4/5/5 2/6/6

usemtl M_65D796C7_c
vt 0.000355285 0.750082
vn 0.856946 -0.0935998 0.506835
v -0.000123888 4.25187 0.000160718
vt 0.500333 0.502985
vn -0.00012673 1 0.000153467
vt 0.500371 1.00006
vn -1.57244e-005 -0.0935168 0.995618
f 1/7/7 5/8/8 4/9/9

vt 0.000303583 0.749919
vt 0.00029664 0.249919
vt 0.5003 0.502843
vn -0.00012673 1 0.000153467
f 1/10/1 3/11/3 5/12/10

vt -0.00084179 0.249978
vn 0.856907 -0.0934737 -0.506926
v -0.000281009 3.87401 -0.85022
vt 0.499174 2.46648e-006
vn 0.000139177 -0.0932891 -0.995639
vt 0.499137 0.502935
vn -0.00012673 1 0.000153467
f 3/13/11 6/14/12 5/15/13

usemtl M_28ABDC6B_c
vt -0.000441612 0.250646
vn 0.856907 -0.0934737 -0.506926
vt 0.499537 0.503606
vt 0.499577 0.000674952
f 3/16/14 2/17/6 6/18/12

vt 0.500296 0.502864
v -0.756207 3.8739 -0.425277
vt 1.00028 0.249913
vn -0.856944 -0.0937383 -0.506814
vt 0.500269 -6.68708e-005
vn 0.000139177 -0.0932891 -0.995639
f 2/19/6 7/20/15 6/21/16

vt 0.500298 0.50273
vn 0.000193289 -1 -7.22166e-005
v -0.756037 3.87374 0.425131
vt 1.00031 0.749785
vn -0.856803 -0.0938463 0.507033
vt 1.00029 0.249785
vn -0.856944 -0.0937383 -0.506814
f 2/22/17 8/23/18 7/24/19

vt 0.499994 0.502879
vn 0.000193289 -1 -7.22166e-005
vt 0.499998 0.999949
vn -1.57244e-005 -0.0935168 0.995618
vt 0.999996 0.749945
vn -0.856803 -0.0938463 0.507033
f 2/25/20 4/26/21 8/27/22

usemtl M_65D796C7_c
vt 0.499923 0.503623
vn -0.00012673 1 0.000153467
vt 0.99991 0.750709
vn -0.856803 -0.0938463 0.507033
vt 0.499901 1.00069
vn -1.57244e-005 -0.0935168 0.995618
f 5/28/23 8/29/24 4/30/25

vt 0.499337 0.503046
vn -0.00012673 1 0.000153467
vt 0.999341 0.250125
vn -0.856944 -0.0937383 -0.506814
vt 0.999332 0.750125
f 5/31/26 7/32/27 8/33/18

vt 0.499886 0.503057
vn -0.00012673 1 0.000153467
vt 0.499889 0.000127531
vt 0.999888 0.25013
vn -0.856944 -0.0937383 -0.506814
f 5/34/28 6/35/16 7/36/29

g Mesh2 Group3 Group1 Model

usemtl DD4B6F7_c
v 0.614072 0.850447 -0.377973
vt -0.1665 0.38184
vn 0.711917 0.542906 -0.445451
v 0.425073 1.51191 -0.236221
vt -0.1665 1
vn 0.88649 0.248617 -0.390287
v 0.614082 0.85053 0.377936
vt -0.5 0.38184
vn 0.733369 0.548625 0.401473
f 9/37/30 10/38/31 11/39/32

vt -0.1665 1
vn 0.88649 0.248617 -0.390287
vt -0.1665 0.38184
v 0.000103948 1.51179 -0.4723
vt 0.1665 1
vn 0.102212 0.255519 -0.961386
f 10/40/33 9/41/30 12/42/34

vt 0.1665 1
vn 0.102212 0.255519 -0.961386
vt -0.1665 0.38184
v 0.000143106 0.850473 -0.708463
vt 0.1665 0.38184
vn -0.0127681 0.55526 -0.831579
f 12/43/35 9/44/30 13/45/36

vt 0.1665 0.38184
vn -0.0127681 0.55526 -0.831579
vt -0.1665 0.38184
v 0.945111 0.472569 -0.566793
vt -0.1665 -3.33067e-016
vn 0.806124 0.40405 -0.432329
f 13/46/37 9/47/30 14/48/38

vt -0.1665 -1.9984e-014
vn 0.806124 0.40405 -0.432329
vt -0.1665 0.38184
v 0.944991 0.472532 0.566891
vt -0.5 -1.29896e-014
vn 0.786414 0.396852 0.473352
f 14/49/39 9/50/30 15/51/40

vt -0.1665 0.38184
vt -0.5 0.38184
vt -0.5 6.66134e-015
vn 0.786414 0.396852 0.473352
f 9/52/30 11/53/32 15/54/41

vt 1.5 7.53737e-014
vt 1.5 0.38184
vn 0.733369 0.548625 0.401473
v 5.585e-005 0.472283 1.13371
vt 1.1665 6.54511e-014
vn 0.0848308 0.494202 0.865198
f 15/55/40 11/56/42 16/57/43

vt 1.5 0.38184
v 9.39436e-005 0.850561 0.708657
vt 1.1665 0.38184
vn 0.0129145 0.555308 0.831544
vt 1.1665 1.729e-014
f 11/58/32 17/59/44 16/60/43

v 0.425014 1.51186 0.23625
vt 1.5 1
vn 0.770837 0.253969 0.584218
vt 1.1665 0.38184
vn 0.0129145 0.555308 0.831544
vt 1.5 0.38184
f 18/61/45 17/62/46 11/63/32

v 0.000115422 1.51192 0.472347
vt 1.1665 1
vn -0.102056 0.255588 0.961384
vt 1.1665 0.38184
vn 0.0129145 0.555308 0.831544
vt 1.5 1
f 19/64/47 17/65/48 18/66/45

vt 1.1665 1
v -0.614105 0.85026 0.377807
vt 0.8335 0.38184
vn -0.712155 0.542776 0.445229
vt 1.1665 0.38184
vn 0.0129145 0.555308 0.831544
f 19/67/47 20/68/49 17/69/50

vt 1.1665 1
v -0.425216 1.5118 0.236114
vt 0.8335 1
vn -0.886528 0.248477 0.390291
vt 0.8335 0.38184
vn -0.712155 0.542776 0.445229
f 19/70/47 21/71/51 20/72/52

usemtl M_7773DD2B_c
v -6.26336e-005 5.24412 -0.000117217
vt 0.749276 1.00027
vn 0.000904135 0.999999 -0.000446478
vt 0.572987 0.000267243
vt 0.749257 0.000265463
vn -0.102056 0.255588 0.961384
f 22/73/53 21/74/51 19/75/54

v -0.425156 1.51184 -0.236359
vt 0.426323 -9.64639e-005
vn -0.770633 0.253873 -0.584528
vt 0.573783 -9.54815e-005
vn -0.886528 0.248477 0.390291
vt 0.750044 0.999904
vn 0.000904135 0.999999 -0.000446478
f 23/76/55 21/77/56 22/78/57

usemtl DD4B6F7_c
v -0.614116 0.850177 -0.378103
vt 0.5 0.38184
vn -0.7334 0.548576 -0.401484
vt 0.8335 1
vt 0.5 1
f 24/79/58 21/80/56 23/81/55

vt 0.5 0.38184
vn -0.7334 0.548576 -0.401484
vt 0.8335 0.38184
vt 0.8335 1
f 24/82/59 20/83/49 21/84/51

v -0.944508 0.472332 -0.567145
vt 0.5 -1.33227e-015
vn -0.871207 0.39084 -0.297056
vt 0.8335 0.38184
vn -0.712155 0.542776 0.445229
vt 0.5 0.38184
f 25/85/60 20/86/61 24/87/59

vt 0.5 -4.09672e-014
v -0.94485 0.4724 0.567038
vt 0.8335 -3.48055e-014
vn -0.697538 0.397814 0.595974
vt 0.8335 0.38184
vn -0.712155 0.542776 0.445229
f 25/88/60 26/89/62 20/90/63

usemtl M_3B81B743_c
vt 0.521907 0.999656
v -0.944802 -8.49471e-005 0.566995
vt 0.855467 0.00039366
vn -0.88583 -0.352395 0.301867
vt 0.855465 1.00039
vn -0.697538 0.397814 0.595974
f 25/91/60 27/92/64 26/93/65

vt 0.521907 0.999656
v -0.944547 0.000175056 -0.56699
vt 0.521967 0.000349132
vn -0.610118 -0.601439 -0.515779
vt 0.855467 0.00039366
f 25/94/60 28/95/66 27/96/64

v -6.35676e-005 0.472359 -1.13382
vt 0.188835 0.998552
vn -0.0618405 0.360324 -0.930775
vt 0.521856 -0.00127566
vn -0.610118 -0.601439 -0.515779
vt 0.521792 0.998032
f 29/97/67 28/98/68 25/99/60

vt 0.188835 0.998552
vn -0.0618405 0.360324 -0.930775
v -1.50131e-005 -0.000125078 -1.13386
vt 0.188846 -0.0014483
vn -9.45652e-005 -0.759148 -0.650918
vt 0.521856 -0.00127562
vn -0.610118 -0.601439 -0.515779
f 29/100/69 30/101/70 28/102/71

vt 0.18896 1
v 0.94516 8.5296e-005 -0.566835
vt -0.14453 1.60522e-013
vn 0.610199 -0.601387 -0.515743
vt 0.18896 1.53719e-013
f 29/103/69 31/104/72 30/105/70

vt -0.14453 1
vt -0.14453 1.60505e-013
vt 0.18896 1
f 14/106/39 31/107/72 29/108/69

vt -0.14453 8.81214e-006
vn 0.610199 -0.601387 -0.515743
vt -0.144529 1
v 0.94504 4.40686e-005 0.566847
vt -0.47803 9.3562e-006
vn 0.8858 -0.352228 0.302149
f 31/109/73 14/110/39 32/111/74

vt -0.144529 1
vt -0.47803 1.00001
vn 0.786414 0.396852 0.473352
vt -0.47803 9.3562e-006
f 14/112/38 15/113/75 32/114/74

vt -0.477867 0.997962
vn 0.786414 0.396852 0.473352
v 1.50131e-005 0.000125078 1.13386
vt -0.810878 -0.00186024
vn 4.90453e-005 -0.759079 0.650998
vt -0.477878 -0.00203832
f 15/115/76 33/116/77 32/117/74

vt -0.477867 0.997962
vt -0.810812 0.997442
vn 0.0848308 0.494202 0.865198
vt -0.810878 -0.00186028
vn 4.90453e-005 -0.759079 0.650998
f 15/118/40 16/119/78 33/120/79

vt 0.855218 0.998368
vt 1.18874 -0.00116438
vt 1.1887 0.998145
vn 0.0848308 0.494202 0.865198
f 26/121/62 33/122/79 16/123/80

vt 0.855218 0.998368
vt 0.855246 -0.00163199
vt 1.18874 -0.00116427
vn 4.90453e-005 -0.759079 0.650998
f 26/124/62 27/125/64 33/126/81

usemtl Material3
vt 0.994362 1.50011
vn 4.90453e-005 -0.759079 0.650998
vt 1.98844 1
vt 1.98828 -0.000263835
f 33/127/82 27/128/64 28/129/68

vt 0.994362 1.50011
vn 4.90453e-005 -0.759079 0.650998
vt 1.98828 -0.000263747
vt 0.994602 -0.500213
vn -9.45652e-005 -0.759148 -0.650918
f 33/130/83 28/131/71 30/132/84

vt 0.000142985 3.31076e-005
vt 0.994362 1.50011
vn 4.90453e-005 -0.759079 0.650998
vt 0.994602 -0.500213
vn -9.45652e-005 -0.759148 -0.650918
f 31/133/73 33/134/85 30/135/86

vt 0.000143036 3.30838e-005
vt 0.000164078 1.00003
vn 0.8858 -0.352228 0.302149
vt 0.994362 1.50011
vn 4.90453e-005 -0.759079 0.650998
f 31/136/73 32/137/87 33/138/88

usemtl DD4B6F7_c
vt 1.1665 0.38184
vn 0.0129145 0.555308 0.831544
vt 0.8335 8.45435e-014
vn -0.697538 0.397814 0.595974
vt 1.1665 6.83342e-014
f 17/139/89 26/140/90 16/141/43

vt 1.1665 0.38184
vn 0.0129145 0.555308 0.831544
vt 0.8335 0.38184
vt 0.8335 1.79412e-013
f 17/142/91 20/143/63 26/144/65

vt -0.1665 8.65974e-015
vt 0.1665 4.77396e-015
vt 0.1665 0.38184
vn -0.0127681 0.55526 -0.831579
f 14/145/38 29/146/67 13/147/92

vt 0.1665 0.38184
vt 0.1665 -8.52651e-014
vn -0.0618405 0.360324 -0.930775
vt 0.5 0.38184
vn -0.7334 0.548576 -0.401484
f 13/148/92 29/149/93 24/150/94

vt 0.1665 -1.64924e-013
vn -0.0618405 0.360324 -0.930775
vt 0.5 -1.44884e-013
vn -0.871207 0.39084 -0.297056
vt 0.5 0.38184
f 29/151/95 25/152/96 24/153/59

vt 0.5 1
vn -0.770633 0.253873 -0.584528
vt 0.1665 0.38184
vt 0.5 0.38184
f 23/154/97 13/155/92 24/156/94

vt 0.5 1
vt 0.1665 1
vt 0.1665 0.38184
f 23/157/55 12/158/34 13/159/36

usemtl M_7773DD2B_c
vt -0.250308 0.999962
vn 0.000904135 0.999999 -0.000446478
vt 0.249725 -3.98834e-005
vn 0.102212 0.255519 -0.961386
vt 0.425993 -3.68327e-005
f 22/160/98 12/161/99 23/162/55

vt -0.248458 0.999869
vn 0.000904135 0.999999 -0.000446478
vt 0.075222 -0.000128717
vn 0.88649 0.248617 -0.390287
vt 0.251494 -0.000133404
f 22/163/100 10/164/101 12/165/35

vt 0.0738259 0.000100398
vt -0.249891 1.0001
vn 0.000904135 0.999999 -0.000446478
vt -0.0736345 0.00010187
f 10/166/101 22/167/102 18/168/45

vt 0.75045 1.0001
vn 0.000904135 0.999999 -0.000446478
vt 0.750477 9.769e-005
vt 0.926747 0.000100264
vn 0.770837 0.253969 0.584218
f 22/169/103 19/170/47 18/171/104

usemtl DD4B6F7_c
vt -0.1665 1
vt -0.5 1
vt -0.5 0.38184
f 10/172/101 18/173/45 11/174/32

g Mesh3 Group4 Group1 Model

usemtl M_3DCF9C12_c
v 0.661275 5.14952 0.377808
vt -0.47754 1
vn 0.834562 0.257607 0.486975
v -4.87664e-005 4.01553 0.472362
vt -0.81152 -2.06883e-014
vn 0.000231749 -0.238319 0.971187
v 0.424982 4.0157 0.235968
vt -0.47754 -1.77601e-014
vn 0.837707 -0.236182 0.492408
f 34/175/105 35/176/106 36/177/107

v -0.000148987 5.14953 0.756022
vt -0.811509 1.00016
vn -8.71254e-005 0.537893 0.843013
vt -0.811509 0.000155448
vn 0.000231749 -0.238319 0.971187
vt -0.477529 1.00016
vn 0.834562 0.257607 0.486975
f 37/178/108 35/179/109 34/180/110

vt 1.1885 0.999742
v -0.661718 5.14936 0.377663
vt 0.855488 0.999742
vn -0.834495 0.257722 0.48703
vt 1.1885 -0.00025818
f 37/181/108 38/182/111 35/183/109

usemtl M_38A528A6_c
v -7.16291e-005 5.38564 -0.000117034
vt 0.5 0.50293
vn -9.44548e-005 1 -5.34962e-005
vt 1 0.75
vn -0.834495 0.257722 0.48703
vt 0.5 1
vn -8.71254e-005 0.537893 0.843013
f 39/184/112 38/185/113 37/186/114

vt 0.5 0.50293
vn -9.44548e-005 1 -5.34962e-005
v -0.661459 5.1496 -0.377884
vt 1 0.25
vn -0.726125 0.542895 -0.421909
vt 1 0.75
vn -0.834495 0.257722 0.48703
f 39/187/115 40/188/116 38/189/117

vt 0.5 0.50293
vn -9.44548e-005 1 -5.34962e-005
v -0.000168785 5.14937 -0.755798
vt 0.5 2.08722e-014
vn 0.000122445 0.252134 -0.967692
vt 1 0.25
vn -0.726125 0.542895 -0.421909
f 39/190/118 41/191/119 40/192/120

v 0.661174 5.14976 -0.377897
vt 1.81077e-013 0.25
vn 0.726115 0.542928 -0.421884
vt 0.5 8.00471e-014
vn 0.000122445 0.252134 -0.967692
vt 0.5 0.50293
vn -9.44548e-005 1 -5.34962e-005
f 42/193/121 41/194/122 39/195/123

usemtl M_3DCF9C12_c
vt -0.14453 1
vn 0.726115 0.542928 -0.421884
v 0.42491 4.01552 -0.236208
vt -0.14453 1.28286e-013
vn 0.838813 -0.23809 -0.489598
vt 0.18848 1
vn 0.000122445 0.252134 -0.967692
f 42/196/124 43/197/125 41/198/126

vt -0.14453 1
vt -0.47754 1
vn 0.834562 0.257607 0.486975
vt -0.14453 8.87068e-014
f 42/199/121 34/200/127 43/201/125

usemtl M_38A528A6_c
vt -1.81521e-013 0.75
vt -2.02394e-013 0.25
vt 0.5 0.50293
vn -9.44548e-005 1 -5.34962e-005
f 34/202/105 42/203/121 39/204/128

vt -1.90181e-013 0.75
vn 0.834562 0.257607 0.486975
vt 0.5 0.50293
vn -9.44548e-005 1 -5.34962e-005
vt 0.5 1
f 34/205/129 39/206/130 37/207/114

usemtl M_3DCF9C12_c
vt -0.14453 7.72438e-014
vn 0.838813 -0.23809 -0.489598
vt -0.47754 1
vt -0.47754 7.66054e-014
f 43/208/131 34/209/127 36/210/107

vt 0.189291 0.999426
vn 0.000122445 0.252134 -0.967692
vt -0.143706 -0.000582302
v 7.20097e-005 4.01562 -0.472582
vt 0.189303 -0.000576063
vn 0.000419864 -0.242357 -0.970187
f 41/211/132 43/212/125 44/213/133

vt 0.189594 1.00103
vn 0.000122445 0.252134 -0.967692
vt 0.189582 0.00103308
v -0.425319 4.01545 -0.236345
vt 0.523561 0.00102657
vn -0.838669 -0.238125 -0.489828
f 41/214/134 44/215/133 45/216/135

vt 0.52246 1
vt 0.18848 1
vn 0.000122445 0.252134 -0.967692
vt 0.52246 -8.28781e-014
f 40/217/120 41/218/136 45/219/135

vt 0.52246 1
vt 0.52246 9.34669e-015
vt 0.85547 1
vn -0.834495 0.257722 0.48703
f 40/220/116 45/221/135 38/222/137

vt 0.52246 1.5779e-014
v -0.42547 4.01574 0.236329
vt 0.85547 3.18773e-014
vn -0.837512 -0.235982 0.492834
vt 0.85547 1
f 45/223/135 46/224/138 38/225/113

vt 0.85547 1
vt 0.85547 -1.14381e-013
vt 1.18848 -1.13173e-013
vn 0.000231749 -0.238319 0.971187
f 38/226/137 46/227/138 35/228/139

g Mesh4 Group5 Group1 Model

usemtl M_6589192F_c
v 0.0943545 6.18906 0.0945225
vt -4.44089e-016 0.79297
vn 0.662571 0.352077 0.661091
v 0.0940827 6.18868 -0.0945761
vt 4.92939e-014 -1.18017e-013
vn 0.473881 0.740892 -0.475936
v -0.0948047 6.18896 0.0944467
vt 1 0.79297
vn -0.474787 0.74157 0.473974
f 47/229/140 48/230/141 49/231/142

vt 1 -1.81188e-013
vn 0.473881 0.740892 -0.475936
vt -2.9976e-014 -1.47882e-013
vn 0.662571 0.352077 0.661091
v -0.000147265 5.81106 -7.34208e-006
vt 0.73242 1
vn -0.00190434 -0.999998 -0.000872462
f 48/232/143 47/233/144 50/234/145

vt 1 -1.88738e-013
vt 5.86198e-014 -1.49658e-013
vn -0.474787 0.74157 0.473974
vt 0.61328 1
vn -0.00190434 -0.999998 -0.000872462
f 47/235/140 49/236/146 50/237/147

v -0.0948062 6.18891 -0.094291
vt 2.66454e-015 -4.90719e-014
vn -0.662198 0.351016 -0.662028
vt 0.61328 1
vt 1 -1.19904e-014
f 51/238/148 50/239/147 49/240/146

vt 1 -1.03029e-013
vn -0.662198 0.351016 -0.662028
vt 1.42553e-013 -1.35891e-013
vt 0.57422 1
vn -0.00190434 -0.999998 -0.000872462
f 51/241/149 48/242/143 50/243/150

vt 5.37348e-014 2.4758e-014
vt 1 -1.68754e-014
vt 1 0.79297
f 48/244/143 51/245/148 49/246/142

g Mesh5 Group5 Group1 Model

vt 0.66992 1
vn -0.00129556 0.999998 -0.0018224
v -0.0947437 5.33844 0.0944299
vt -1.18572e-013 9.79283e-014
vn -0.680757 0.272146 0.680079
v 0.0944154 5.33854 0.094506
vt 1 7.60742e-014
vn 0.680572 0.272256 0.68022
f 50/247/151 52/248/152 53/249/153

v -0.0946124 5.33861 -0.0946059
vt -3.26295e-013 8.27949e-014
vn -0.680424 0.272277 -0.680359
vt 1 5.43177e-014
vt 0.66211 1
vn -0.00129556 0.999998 -0.0018224
f 54/250/154 52/251/152 50/252/155

vt 0.6543 1
vn -0.00129556 0.999998 -0.0018224
v 0.0941871 5.33871 -0.0946903
vt 2.22045e-014 1.44398e-013
vn 0.679883 0.272269 -0.680903
vt 1 1.29896e-013
f 50/253/156 55/254/157 54/255/154

vt 1 2.45914e-013
vt 0.60547 1
vn -0.00129556 0.999998 -0.0018224
vt 3.03587e-013 1.76414e-013
f 55/256/157 50/257/158 53/258/153

g Mesh6 Group5 Group1 Model

v -0.33092 5.90528 0.0943679
vt -2.35278e-012 -7.83915e-013
vn -0.315067 0.670823 0.671364
v -0.330873 5.66931 0.0942968
vt 1 -7.90554e-013
vn -0.707569 -0.488386 0.510711
vt 0.63086 1
vn 0.999425 0.0338938 0.00122105
f 56/259/159 57/260/160 50/261/161

v -0.330788 5.90545 -0.0946682
vt 0.686565 -0.339526
vn -0.729826 0.483332 -0.48347
vt 1.81147 -0.603313
vn -0.707569 -0.488386 0.510711
vt 0.819251 -0.779008
f 58/262/162 57/263/163 56/264/159

vt 0.686565 -0.339526
v -0.330875 5.66926 -0.0944405
vt 1.67992 -0.164362
vn -0.241466 -0.670905 -0.701128
vt 1.81147 -0.603313
f 58/265/162 59/266/164 57/267/163

vt 1 -8.1124e-013
vn -0.729826 0.483332 -0.48347
vt 0.63867 1
vn 0.999425 0.0338938 0.00122105
vt 2.08722e-012 -8.04912e-013
f 58/268/165 50/269/166 59/270/164

vt 0.67773 1
vn 0.999425 0.0338938 0.00122105
vt 2.95652e-012 8.45707e-012
vt 1 8.25684e-012
vn -0.315067 0.670823 0.671364
f 50/271/167 58/272/165 56/273/168

vt 0.63086 1
vn 0.999425 0.0338938 0.00122105
vt 3.50636e-013 -4.53299e-012
vn -0.707569 -0.488386 0.510711
vt 1 -4.66954e-012
f 50/274/169 57/275/170 59/276/164

g Mesh7 Group5 Group1 Model

v 0.330643 5.90547 0.0942921
vt 1 -1.34337e-013
vn 0.729449 0.483792 0.48358
vt 0.66992 1
vn -0.999356 0.0358543 -0.00106864
v 0.330556 5.66928 0.0945195
vt -7.23865e-014 -1.75193e-013
vn 0.242142 -0.670324 0.70145
f 60/277/171 50/278/172 61/279/173

vt 1 -2.61569e-013
v 0.330642 5.90542 -0.0944474
vt -1.75637e-013 -3.11307e-013
vn 0.314704 0.67126 -0.671097
vt 0.70117 1
vn -0.999356 0.0358543 -0.00106864
f 60/280/171 62/281/174 50/282/175

v 0.330688 5.66945 -0.0945166
vt -0.447847 1.002
vn 0.707409 -0.488282 -0.511032
vt 0.00216107 0.00292765
vt 0.765047 0.00200625
vn 0.729449 0.483792 0.48358
f 63/283/176 62/284/174 60/285/177

vt 1 -2.75335e-014
vt 1.33227e-013 -3.90799e-014
vt 0.70117 1
vn -0.999356 0.0358543 -0.00106864
f 62/286/174 63/287/176 50/288/178

vt -4.57412e-013 8.29337e-013
vt 1 8.20455e-013
vt 0.58203 1
vn -0.999356 0.0358543 -0.00106864
f 63/289/176 61/290/173 50/291/179

vt -0.447847 1.002
vn 0.707409 -0.488282 -0.511032
vt 0.765047 0.0020061
vt 0.315821 1.00201
f 63/292/180 60/293/171 61/294/173

